<?xml version="1.0" encoding="UTF-8" standalone="no"?>
<!-- Created with Inkscape (http://www.inkscape.org/) -->

<svg
   xmlns:dc="http://purl.org/dc/elements/1.1/"
   xmlns:cc="http://creativecommons.org/ns#"
   xmlns:rdf="http://www.w3.org/1999/02/22-rdf-syntax-ns#"
   xmlns:svg="http://www.w3.org/2000/svg"
   xmlns="http://www.w3.org/2000/svg"
   xmlns:xlink="http://www.w3.org/1999/xlink"
   xmlns:sodipodi="http://sodipodi.sourceforge.net/DTD/sodipodi-0.dtd"
   xmlns:inkscape="http://www.inkscape.org/namespaces/inkscape"
   height="297mm"
   id="svg2"
   inkscape:version="0.48.3.1 r9886"
   sodipodi:docname="sigiem.svg"
   sodipodi:version="0.32"
   width="210mm"
   version="1.1">
  <metadata
     id="metadata3">
    <rdf:RDF>
      <cc:Work
         rdf:about="">
        <dc:title />
        <dc:description />
        <dc:subject>
          <rdf:Bag>
            <rdf:li>unsorted</rdf:li>
          </rdf:Bag>
        </dc:subject>
        <dc:publisher>
          <cc:Agent
             rdf:about="http://www.openclipart.org/">
            <dc:title>Jacek Adamkiewicz</dc:title>
          </cc:Agent>
        </dc:publisher>
        <dc:creator>
          <cc:Agent>
            <dc:title>Jacek Adamkiewicz</dc:title>
          </cc:Agent>
        </dc:creator>
        <dc:rights>
          <cc:Agent>
            <dc:title>Jacek Adamkiewicz</dc:title>
          </cc:Agent>
        </dc:rights>
        <dc:date />
        <dc:format>image/svg+xml</dc:format>
        <dc:type
           rdf:resource="http://purl.org/dc/dcmitype/StillImage" />
        <cc:license
           rdf:resource="http://web.resource.org/cc/PublicDomain" />
        <dc:language>pl</dc:language>
      </cc:Work>
      <cc:License
         rdf:about="http://web.resource.org/cc/PublicDomain">
        <cc:permits
           rdf:resource="http://web.resource.org/cc/Reproduction" />
        <cc:permits
           rdf:resource="http://web.resource.org/cc/Distribution" />
        <cc:permits
           rdf:resource="http://web.resource.org/cc/DerivativeWorks" />
      </cc:License>
    </rdf:RDF>
  </metadata>
  <defs
     id="defs4">
    <linearGradient
       id="linearGradient3030">
      <stop
         style="stop-color:#002c00;stop-opacity:1;"
         offset="0"
         id="stop3032" />
      <stop
         style="stop-color:#00ff00;stop-opacity:0;"
         offset="1"
         id="stop3034" />
    </linearGradient>
    <linearGradient
       id="linearGradient3005">
      <stop
         style="stop-color:#00ff00;stop-opacity:1;"
         offset="0"
         id="stop3007" />
      <stop
         style="stop-color:#ff0000;stop-opacity:0;"
         offset="1"
         id="stop3009" />
    </linearGradient>
    <linearGradient
       inkscape:collect="always"
       xlink:href="#linearGradient3030"
       id="linearGradient3036"
       x1="371.39575"
       y1="746.10834"
       x2="367.53833"
       y2="596.28668"
       gradientUnits="userSpaceOnUse"
       gradientTransform="matrix(1.0368786,0,0,1.1047566,58.53531,14.600684)" />
  </defs>
  <sodipodi:namedview
     bordercolor="#666666"
     borderopacity="1.0"
     id="base"
     inkscape:current-layer="g3064"
     inkscape:cx="504.61215"
     inkscape:cy="460.61746"
     inkscape:document-units="px"
     inkscape:pageopacity="0.0"
     inkscape:pageshadow="2"
     inkscape:window-height="800"
     inkscape:window-width="1280"
     inkscape:window-x="0"
     inkscape:window-y="30"
     inkscape:zoom="1.0000747"
     pagecolor="#ffffff"
     showgrid="false"
     inkscape:window-maximized="0" />
  <g
     id="layer1"
     inkscape:groupmode="layer"
     inkscape:label="Warstwa 1">
    <path
       d="M -745.16989,-611.57388 L -745.16989,-611.57388"
       id="path12384"
       style="font-size:103.7095871px;font-style:normal;font-variant:normal;font-weight:normal;font-stretch:normal;text-align:start;line-height:125%;writing-mode:lr-tb;text-anchor:start;fill:#000000;fill-opacity:1;stroke:none;stroke-width:1px;stroke-linecap:butt;stroke-linejoin:miter;stroke-opacity:1;font-family:Palatino Linotype" />
    <path
       d="M -745.87885,-533.23465 L -745.87885,-533.23465"
       id="path12382"
       style="font-size:103.7095871px;font-style:normal;font-variant:normal;font-weight:normal;font-stretch:normal;text-align:start;line-height:125%;writing-mode:lr-tb;text-anchor:start;fill:#000000;fill-opacity:1;stroke:none;stroke-width:1px;stroke-linecap:butt;stroke-linejoin:miter;stroke-opacity:1;font-family:Palatino Linotype" />
    <path
       d="M -688.3018,-611.57388 L -688.3018,-611.57388"
       id="path12376"
       style="font-size:103.7095871px;font-style:normal;font-variant:normal;font-weight:normal;font-stretch:normal;text-align:start;line-height:125%;writing-mode:lr-tb;text-anchor:start;fill:#000000;fill-opacity:1;stroke:none;stroke-width:1px;stroke-linecap:butt;stroke-linejoin:miter;stroke-opacity:1;font-family:Palatino Linotype" />
    <path
       d="M -688.0486,-533.23465 L -688.0486,-533.23465"
       id="path12374"
       style="font-size:103.7095871px;font-style:normal;font-variant:normal;font-weight:normal;font-stretch:normal;text-align:start;line-height:125%;writing-mode:lr-tb;text-anchor:start;fill:#000000;fill-opacity:1;stroke:none;stroke-width:1px;stroke-linecap:butt;stroke-linejoin:miter;stroke-opacity:1;font-family:Palatino Linotype" />
    <path
       d="M -507.97472,-611.57388 L -507.97472,-611.57388"
       id="path12366"
       style="font-size:103.7095871px;font-style:normal;font-variant:normal;font-weight:normal;font-stretch:normal;text-align:start;line-height:125%;writing-mode:lr-tb;text-anchor:start;fill:#000000;fill-opacity:1;stroke:none;stroke-width:1px;stroke-linecap:butt;stroke-linejoin:miter;stroke-opacity:1;font-family:Palatino Linotype" />
    <path
       d="M -509.13943,-533.23465 L -509.13943,-533.23465"
       id="path12364"
       style="font-size:103.7095871px;font-style:normal;font-variant:normal;font-weight:normal;font-stretch:normal;text-align:start;line-height:125%;writing-mode:lr-tb;text-anchor:start;fill:#000000;fill-opacity:1;stroke:none;stroke-width:1px;stroke-linecap:butt;stroke-linejoin:miter;stroke-opacity:1;font-family:Palatino Linotype" />
    <path
       d="M -326.43231,-611.57388 L -326.43231,-611.57388"
       id="path12356"
       style="font-size:103.7095871px;font-style:normal;font-variant:normal;font-weight:normal;font-stretch:normal;text-align:start;line-height:125%;writing-mode:lr-tb;text-anchor:start;fill:#000000;fill-opacity:1;stroke:none;stroke-width:1px;stroke-linecap:butt;stroke-linejoin:miter;stroke-opacity:1;font-family:Palatino Linotype" />
    <path
       d="M -326.63487,-533.23465 L -326.63487,-533.23465"
       id="path12354"
       style="font-size:103.7095871px;font-style:normal;font-variant:normal;font-weight:normal;font-stretch:normal;text-align:start;line-height:125%;writing-mode:lr-tb;text-anchor:start;fill:#000000;fill-opacity:1;stroke:none;stroke-width:1px;stroke-linecap:butt;stroke-linejoin:miter;stroke-opacity:1;font-family:Palatino Linotype" />
    <g
       id="g3064"
       inkscape:export-filename="/home/manolo/Dropbox/Logos/sigiem.png"
       inkscape:export-xdpi="90"
       inkscape:export-ydpi="90">
      <g
         transform="matrix(0.85608968,0.5168273,-0.5168273,0.85608968,316.69705,-111.11281)"
         id="g2993">
        <path
           inkscape:connector-curvature="0"
           d="m 159.2378,737.6444 c 136.0891,-12.90563 209.5542,-83.11046 326.0223,-305.61657 0,0 -154.048,311.91199 -309.2634,289.34615 l -16.7589,16.27042 z"
           id="path1383"
           style="fill:#54a800;fill-opacity:1;fill-rule:evenodd;stroke:none" />
        <path
           inkscape:connector-curvature="0"
           d="M 542.0828,238.33019 C 503.7588,341.42191 428.0432,416.73943 371.4,472.7295 c -28.3216,27.99504 -53.2422,54.89238 -67.7187,87.625 -14.4766,32.73262 -18.189,71.15755 -4.7188,120.9375 l 10.7813,3.8125 c 0,0 -1.5645,-6.72648 -1.8055,-7.65433 13.9766,2.50455 67.8229,7.13692 120.993,-38.47067 61.6244,-52.85954 120.3297,-164.987 112.9375,-400.65625 l 0.214,0.007 z m -9.214,28.55556 c 1.9183,214.38586 -53.6317,316.53289 -110.0625,364.9375 -54.2601,46.54254 -107.2139,44.29661 -115.5313,43.65625 -11.9577,-46.47222 -8.3036,-81.26318 5,-111.34375 13.629,-30.81624 37.5856,-56.91 65.7188,-84.71875 51.904,-51.3056 117.7296,-108.51016 154.875,-212.53125 z"
           id="path1381"
           sodipodi:nodetypes="csscccscccscssc"
           style="fill:#54a800;fill-opacity:1;fill-rule:evenodd;stroke:none" />
      </g>
      <text
         transform="scale(0.96156786,1.0399682)"
         sodipodi:linespacing="125%"
         id="text2997"
         y="531.12726"
         x="112.33511"
         style="font-size:145.2588501px;font-style:normal;font-variant:normal;font-weight:bold;font-stretch:normal;line-height:125%;letter-spacing:0px;word-spacing:0px;fill:#000000;fill-opacity:1;stroke:none;font-family:Berlin Sans FB Demi;-inkscape-font-specification:Berlin Sans FB Demi Bold"
         xml:space="preserve"><tspan
           y="531.12726"
           x="112.33511"
           id="tspan2999"
           sodipodi:role="line">Sigiem</tspan></text>
    </g>
  </g>
</svg>
