{
    "type": "Feature",
    "geometry": {
        "type": "Point",
        "coordinates": [
            -2.59179,
            40.702342
        ]
    },
    "properties": {
        "Provincia": "Guadalajara",
        "Localidad": "Trillo",
        "Calle:": "Calle de la Vega 24",
        "CP": "19450",
        "Descripción": "La Central Nuclear Trillo se encuentra emplazada en la comarca de la Alcarria, junto al curso del río Tajo, en el paraje denominado Cerrillo Alto. Es la más moderna del parque nuclear español, con una potencia instalada de 1.066 MWe, suministra una media de 8000 millones de kWh. Dispone de un reactor de agua a presión con tres lazos de refrigeración y utiliza uranio enriquecido como combustible"
    }
}
